<svg 
 xmlns="http://www.w3.org/2000/svg"
xmlns:xlink="http://www.w3.org/1999/xlink"
width="23px" height="23px">
<path fill-rule="evenodd"  fill="#1B5EAA"
d="M22.992,20.652 L20.650,22.994 L11.499,13.843 L2.348,22.994 L0.006,20.652 L9.157,11.501 L0.006,2.350 L2.348,0.008 L11.499,9.159 L20.648,0.011 L22.989,2.352 L13.841,11.501 L22.992,20.652 Z"/>
</svg>
