<svg
 xmlns="http://www.w3.org/2000/svg"
xmlns:xlink="http://www.w3.org/1999/xlink"
width="23px" height="23px">
<path fill-rule="evenodd"  fill="rgb(0, 0, 0)"
d="M19.632,19.633 C15.148,24.118 7.851,24.118 3.367,19.633 C-1.118,15.149 -1.118,7.852 3.367,3.368 C7.851,-1.117 15.149,-1.118 19.633,3.367 C24.118,7.851 24.117,15.148 19.632,19.633 ZM16.465,15.454 L15.453,16.466 L11.499,12.512 L7.546,16.466 L6.534,15.454 L10.488,11.500 L6.534,7.547 L7.546,6.535 L11.499,10.489 L15.452,6.536 L16.464,7.548 L12.511,11.500 L16.465,15.454 Z"/>
</svg>
